{
  "startup": {
    "scripts": [
      "static/script/vendor/modernizr/modernizr-2.6.2.custom.js",
      "static/script/components/init.js"
    ]
  },

  "global": {
    "scripts": [
      "static/script/components/menu.js",
      "static/script/components/gallery.js",
      "static/script/components/contact.js",
      "static/script/components/franchisee.js"
    ]
  },

  "carousel": {
    "scripts": [
      "static/script/vendor/owl-carousel/owl.carousel.min.js",
      "static/script/components/carousel.js"
    ]
  },

  "storeLocator": {
    "scripts": [
      "static/script/utils/google-maps.js",
      "static/script/components/store-locator.js"
    ]
  },
  

  "sass": {
    "default": {
      "httpPath":           "/",
      "sassDir":            "static/style/sass",
      "cssDir":             "static/style",
      "imagesDir":          "static/image",
      "imagesPath":         "static/image",
      "generatedImagesDir": "static/image",
      "javascriptsDir":     "static/script",
      "fontsDir":           "static/font",
      "require": [
        "compass-normalize"
      ]
    }
  },


  "jshint": {
    "maxerr": 50,
    "bitwise": true,
    "camelcase": true,
    "curly": true,
    "eqeqeq": true,
    "forin": true,
    "immed": false,
    "indent": 2,
    "latedef": false,
    "newcap": false,
    "noarg": true,
    "noempty": true,
    "nonew": false,
    "plusplus": false,
    "quotmark": "double",
    "undef": true,
    "unused": true,
    "strict": true,
    "trailing": false,
    "maxparams": false,
    "maxdepth": false,
    "maxstatements": false,
    "maxcomplexity": false,
    "maxlen": false,
    "asi": false,
    "boss": false,
    "debug": false,
    "eqnull": false,
    "es5": false,
    "esnext": false,
    "moz": false,
    "evil": true,
    "expr": false,
    "funcscope": false,
    "globalstrict": false,
    "iterator": false,
    "lastsemic": false,
    "laxbreak": false,
    "laxcomma": false,
    "loopfunc": false,
    "multistr": false,
    "proto": false,
    "scripturl": false,
    "smarttabs": false,
    "shadow": false,
    "sub": false,
    "supernew": false,
    "validthis": false,
    "browser": true,
    "couch": false,
    "devel": true,
    "dojo": false,
    "jquery": false,
    "mootools": false,
    "node": false,
    "nonstandard": false,
    "prototypejs": false,
    "rhino": false,
    "worker": false,
    "wsh": false,
    "yui": false,
    "nomen": false,
    "onevar": false,
    "passfail": false,
    "white": false,
    "globals": {
      "app": false,
      "$": false,
      "Modernizr": false,
      "dataLayer": false
    },
    "ignores": [
      "Gruntfile.js",
      "static/script/startup.min.js",
      "static/script/startup.js",
      "static/script/global.min.js",
      "static/script/vendor/**/*.js"
    ]
  }
}
